<svg width="30" height="29" viewBox="0 0 30 29" fill="none" xmlns="http://www.w3.org/2000/svg">
<g clip-path="url(#clip0_2902_11849)">
<path fill-rule="evenodd" clip-rule="evenodd" d="M9.6875 0.774414H19.6875V2.52856C19.6875 3.21893 20.2471 3.77856 20.9375 3.77856C21.6279 3.77856 22.1875 3.21893 22.1875 2.52856V0.774414H25.2849C27.356 0.774414 29.0349 2.45335 29.0349 4.52441V7.52856C29.0346 7.52856 29.0344 7.52856 29.034 7.52856H0.341797V4.52441C0.341797 2.45334 2.02072 0.774414 4.0918 0.774414H7.1875V2.52856C7.1875 3.21893 7.74715 3.77856 8.4375 3.77856C9.12785 3.77856 9.6875 3.21893 9.6875 2.52856V0.774414ZM0.341797 10.0286V24.2829C0.341797 26.3539 2.02072 28.0329 4.0918 28.0329H25.2849C27.356 28.0329 29.0349 26.3539 29.0349 24.2829V10.0286C29.0346 10.0286 29.0344 10.0286 29.034 10.0286H0.341797ZM9.0625 13.7786C8.37215 13.7786 7.8125 14.3383 7.8125 15.0286C7.8125 15.7189 8.37215 16.2786 9.0625 16.2786H11.5625C12.2528 16.2786 12.8125 15.7189 12.8125 15.0286C12.8125 14.3383 12.2528 13.7786 11.5625 13.7786H9.0625ZM16.5625 15.0286C16.5625 14.3383 17.1221 13.7786 17.8125 13.7786H20.3125C21.0029 13.7786 21.5625 14.3383 21.5625 15.0286C21.5625 15.7189 21.0029 16.2786 20.3125 16.2786H17.8125C17.1221 16.2786 16.5625 15.7189 16.5625 15.0286ZM9.0625 18.7786C8.37215 18.7786 7.8125 19.3383 7.8125 20.0286C7.8125 20.7189 8.37215 21.2786 9.0625 21.2786H11.5625C12.2528 21.2786 12.8125 20.7189 12.8125 20.0286C12.8125 19.3383 12.2528 18.7786 11.5625 18.7786H9.0625ZM16.5625 20.0286C16.5625 19.3383 17.1221 18.7786 17.8125 18.7786H20.3125C21.0029 18.7786 21.5625 19.3383 21.5625 20.0286C21.5625 20.7189 21.0029 21.2786 20.3125 21.2786H17.8125C17.1221 21.2786 16.5625 20.7189 16.5625 20.0286Z" fill="#979797"/>
</g>
<defs>
<clipPath id="clip0_2902_11849">
<rect width="30" height="27.5" fill="white" transform="translate(0 0.75)"/>
</clipPath>
</defs>
</svg>
