<svg width="60" height="61" viewBox="0 0 60 61" fill="none" xmlns="http://www.w3.org/2000/svg">
<circle cx="30" cy="30.7754" r="30" fill="#007AFF"/>
<ellipse cx="30" cy="23.2754" rx="16.5" ry="9" stroke="white" stroke-width="4" stroke-linecap="round" stroke-linejoin="round"/>
<path d="M21 31.1914C20.0439 32.0915 19.5 33.1259 19.5 34.2261C19.5 37.7055 24.94 40.5261 31.6505 40.5261C36.3093 40.5261 40.3557 39.1667 42.3946 37.1711" stroke="white" stroke-width="4" stroke-linecap="round" stroke-linejoin="round"/>
<path d="M19.5 36.7754C17.946 37.8075 16.5 39.8161 16.5 41.2398C16.5 44.5732 21.5928 47.2754 27.875 47.2754C29.7187 47.2754 31.4599 47.0427 33 46.6295" stroke="white" stroke-width="4" stroke-linecap="round" stroke-linejoin="round"/>
</svg>
