<svg width="25" height="25" viewBox="0 0 25 25" fill="none" xmlns="http://www.w3.org/2000/svg">
<path d="M20.5 9.25L23.1667 12.25L20.5 15.25" stroke="#979797" stroke-width="2" stroke-linecap="round" stroke-linejoin="round"/>
<path d="M23 12.25L9.5 12.25" stroke="#979797" stroke-width="2" stroke-linecap="round"/>
<path d="M15.5 5.25V2.25H1.5V22.25H15.5V19.25" stroke="#979797" stroke-width="2" stroke-linecap="round" stroke-linejoin="round"/>
</svg>
